info_a3
…
Variables to consider: total jail pop vs prison pop Race distribution
(aapi, black, latinx, native, white, other_race), jail (_jail_pop) vs
prison (_prison_pop)

Summary Information

What is the average prison population to population ratio of each
state in 2016?

## # A tibble: 34 x 2
##    state prison_pop_to_total_pop_ratio
##    <chr>                         <dbl>
##  1 OK                          0.00682
##  2 TX                          0.00670
##  3 MO                          0.00611
##  4 GA                          0.00605
##  5 FL                          0.00603
##  6 MS                          0.00602
##  7 AZ                          0.00566
##  8 KY                          0.00555
##  9 NV                          0.00549
## 10 AL                          0.00484
## # ... with 24 more rows
…
